#SPC
{
	#author "Sky map theme"
	#comment "Jimmy52905"
	#game "SMW Central Production 2"
}

#0 w160 t41

$EF $FF $3F $3F ;\
$F1 $02 $A0 $01	;/ Echo.

#0 @0 v225 y12
$ED $0D $E0

$DE $2E $0C $38
$EA $35

o4
[r1]8
/
(10)[d8f+8a8b8r8a8f+8d8]1
e2..r8
(10)1
e8 $DD $00 $0C $AA e2.r8
(11)[c+8e8g+8a8r8g8e8c+8]1
d2..r8
(11)1
f8 $DD $00 $0C $AC f2.r8

#1 @8 v255 y10
$ED $7F $F0

o2
(20)[d16d16d16d16d16d16d16d16<a16a16>d16<a16>d16<a16>f+16<a16>]1
(21)[c16c16c16c16c16c16c16c16<g16g16>c16<g16>c16<g16>e16<g16]1
(20)1
(21)1
(22)[a16a16a16a16a16a16a16a16e16e16a16e16a16e16>c+16<a16>]1
(21)1
(22)1
(23)[c+16c+16c+16c+16c+16c+16c+16c+16<g+16g+16>c+16<g+16>c+16<g+16>f16<g+16>]1
/
(20)1
(21)1
(20)1
(21)1
(22)1
(21)1
(22)1
(23)1

#2 @1 v96 y14
$ED $09 $E0

o5
(30)[f+1
     e1
     f+2.a4
     e1
     c+2.e4
     c2<a2>
     c+2.e4
     f1]1
/
(30)1

#3 @1 v96 y14
$ED $09 $E0

o5
(40)[d1
     c1
     d2.f+4
     c1
     <a2.>c+4
     <g1
     a2.>c+4
     c+1]1
/
(40)1

#7 @1 v96 y14
$ED $09 $E0

o4
(50)[a1
     g1
     a2.>d4
     <g1
     e2.a4
     e1
     e2.a4
     g+1]1
/
(50)1

#6  @21  v255 y06

o3
(60)[o3  @21 c8 @21 c8@10c4 @21 c16 @21 c16 @21 c16  @28  v0 c16 o5 v255 $ED $6D $97 @28e16@28e16@28e8
     o3  @21 c8 @21 c8@10c4 @21 c8  @21 c16 @21 c32  @28  v0 c32 o5 v255 $ED $6D $97 @28e8 @28e16@28e16]4
/
(60)4

#5 @23 v255 y06

o3
(70)[v255 @23c16@23c16 $E8 $18 $00 b64b64b64b64b64b64b64b64 v255 @23c8.c8c8.c8 $E8 $18 $00 b64b64b64b64b64b64b64b64
     v255 @23c16@23c16 $E8 $18 $00 b64b64b64b64b64b64b64b64 v255 @23c8.c8c8 $E8 $0C $7F b64b64b64b64 v255 @23c8@23c8]4
/
(70)4

#4 @0 v112 y00
$ED $0B $E0

$DE $2E $0C $38
$EA $35

o5
(80)[r2^8d16<a16f+8d8
     f+16r16e2..>]2
(81)[r2^8c+16<b16a8e8
     g16r16e2..>]1
(82)[r2^8c+16<a16e8c+8
     f+16r16f2..>]1
/
(80)2
(81)1
(82)1                

#amk=1
